{
    "feature":
    [
        {
            "label": "end",
            "values": ["-","+"]
        },
        {
            "label": "son",
            "values": ["-","+"]
        }
    ],
    "feature_table":
    {
        "a": ["-","+"],
        "b": ["-","-"],
        "#": ["+","-"]
}
}
