{
    "feature":
    [
        {
            "label": "end",
            "values": ["-","+"]
        },
        {
            "label": "trace",
            "values": ["-","+"]
        },
        {
            "label": "son",
            "values": ["-","+"]
        }
    ],
    "feature_table":
    {
        "a": ["-","-","+"],
        "b": ["-","-","-"],
        "#": ["+","-","-"],
        "A": ["-","+","+"],
        "B": ["-","+","-"]
    }
}
