[
     {
        "type": "Max",
        "bundles":
            [
                {
                "son":"-"
                }
            ]
    },
    {
        "type": "Phonotactic",
        "bundles":
            [
                {
                    "son":"-"

                },
                {
                    "son":"-"
                }
            ]
    },
    {
        "type": "Faith",
        "bundles":[]
    },
    {
        "type": "Dep",
        "bundles":
            [
                {
                "son":"+"
                }
            ]
    }
]