[
    {
        "type": "Max",
        "bundles":
            [
                {
                "end":"+"
                }
            ]
    },
    {
        "type": "Phonotactic",
        "bundles":
            [
                {
                    "son":"-",
                    "end":"-"

                },
                {
                    "end":"+"
                }
            ]
    },
    {
        "type": "Faith",
        "bundles":[]
    },
    {
        "type": "Dep",
        "bundles":
            [
                {
                "son":"+",
                "end":"-"
                }
            ]
    },
    {
        "type": "Max",
        "bundles":
            [
                {
                "son":"-",
                "end":"-"
                }
            ]
    }
]