digraph acceptor {
rankdir=LR
size="11,5"
node [shape = ellipse];
// arcs: source -> dest [label]
"(q0|q0|0|q0|q0,0)" -> "(q0|q0|0|q0|q0,0)" [label="a : {'a'} [0, 0, 0, 0]\nb : {'ba'} [0, 0, 1, 1]\n\n\n"];
"(q0|q1|0|q0|q0,0)" -> "(q0|q1|0|q0|q0,0)" [label="a : {'', 'ab'} [0, 0, 1, 0]\nb : {'ab'} [0, 0, 1, 1]\n\n\n"];
"(q0|q0|0|q0|q0,0)" -> "(q0|q1|0|q0|q0,0)" [label="a : {'ab'} [0, 0, 1, 0]\nb : {'b'} [0, 0, 0, 0]\n\n\n"];
"(q0|q1|0|q0|q0,0)" -> "(q0|q0|0|q0|q0,0)" [label="a : {'a'} [0, 0, 0, 0]\nb : {'aba'} [0, 0, 2, 2]\n\n\n"];
// start nodes
"(q0|q0|0|q0|q0,0)" [style=filled];
// final nodes
"(q0|q0|0|q0|q0,0)" [peripheries=2];
"(q0|q1|0|q0|q0,0)" [peripheries=2];
}